"","FenlandMz","FenlandName","OurStudyName","MulitOmicsAnalysisName","OurStudyMz"
"PC_40_4__MH_1_PE_43_4__MH_1",838.6337,"M838_6337","PC_40:4_[M+H]1+ / PE_43:4_[M+H]1+","PC_40_4__MH_1_PE_43_4__MH_1",838.632
"TG_58_8__MNH4_1",948.8031,"M948_8031","TG_58:8_[M+NH4]1+","TG_58_8__MNH4_1",948.8015
"PC_38_3__MH_1_PE_41_3__MH_1_PA_43_4__MNH4_1",812.6175,"M812_6175","PC_38:3_[M+H]1+ / PE_41:3_[M+H]1+ / PA_43:4_[M+NH4]1+","PC_38_3__MH_1_PE_41_3__MH_1_PA_43_4__MNH4_1",812.6164
"PC_O_42_4__MH_1",852.6864,"M852_6864","PC-O_42:4_[M+H]1+","PC_O_42_4__MH_1",852.6841
"DG_28_0__MH_H2O_1",495.4409,"M495_4409","DG_28:0_[M+H-H2O]1+","DG_28_0__MH_H2O_1",495.4408
"TG_54_4__MNH4_1",900.8022,"M900_8022","TG_54:4_[M+NH4]1+","TG_54_4__MNH4_1",900.8015
"TG_53_4__MNH4_1",886.7854,"M886_7854","TG_53:4_[M+NH4]1+","TG_53_4__MNH4_1",886.7858
"TG_44_0__MNH4_1",768.7037,"M768_7037","TG_44:0_[M+NH4]1+","TG_44_0__MNH4_1",768.7076
"CE_20_3__MNH4_1",692.6321,"M692_6321","CE_20:3_[M+NH4]1+","CE_20_3__MNH4_1",692.634
"Hydroxycholesterol__MH_2H2O_1",367.3365,"M367_3365","Hydroxycholesterol_[M+H-2H2O]1+","Hydroxycholesterol__MH_2H2O_1",367.3359
